code,sub-code,mode,quantity
115748D94JT1000,B001000000000229,,1
115748D94JT4249,RBB0010004046945,,2
RV68131899,RVB0010000493984,,1
362967D940T1000,RBB0010001609652,,5
RVSR7928001,RVB0010000744263.SH1390,,1
