code,sub-code,mode,quantity
81KW3211BLACK,RBK0850004938806,,6
81KW3050BLACK,RBK0850004938807,,5
HH17FNUX01TRUENAVY,RBR0800005008274,,3
81KW3061BLACK,RBK0850004938798,,1
81KW3089MULTI,RBK0850004938803,,1
81KW3057BLACK,RBK0850004938809,,4
81KW3090MULTI,RBK0850004938804,,2
81KW3020BLACK,RBK0850004938795,,5
81KW3083STRIPES,RBK0850004938800,,5
