code,sub-code,mode,quantity
RVSR83641001,RVP0080005008912,,1
RVSR83668001,RVM0080005009511,,1
RVSR83667001,RVB0010005009711,,1
RVSR83691001,RVP1970005012832,,1
RVSR83666001,RVG0020005009611,,1
RVSR83803001,RVM0090005014069,,1
RVSR83805001,RVR0470005014168,,1
RVSR83801001,RVL0210005014368,,1
SB21F4780206271831002,RVS0010004972980,,1
SB21D5551006000318001,RVS0010004976708,,1
SC2020806A,SCL0210005018341,,1
81KW3211BLACK,RBK0850004938806,,6
81KW3050BLACK,RBK0850004938807,,5
HH17FNUX01TRUENAVY,RBR0800005008274,,3
81KW3061BLACK,RBK0850004938798,,1
81KW3089MULTI,RBK0850004938803,,1
81KW3057BLACK,RBK0850004938809,,4
81KW3090MULTI,RBK0850004938804,,2
81KW3020BLACK,RBK0850004938795,,5
81KW3083STRIPES,RBK0850004938800,,5
81KW3022BLACK,RBK0850004938796,,4
81KW3056BLACK,RBK0850004938808,,5
A18190378,RBT1750004908105,,2
81KW3017BLACKGOLD,RBK0850004938794,,3
81KW3201BLACK,RBK0850004938799,,3
81KW3091MULTI,RBK0850004938805,,2
81KW3088STRIPES,RBK0850004938802,,1
A18509400,RBT1750004908101,,1
6222061001,RBB0200004950746,,2
81KW3117BLACK,RBK0850004938797,,1
A18190780,RBT1750004908109,,1
A18190234,RBT1750004908107,,1
A18509800,RBT1750004908102,,1
81KW3101BLACK,RBK0850004938815,,3
COCOIH27418PIK,RBA0010004923910.GL000M,,2
COCOIH27418PIK,RBA0010004923910.GL000L,,1
COCOIH27418PIK,RBA0010004923910.GL000S,,1
A18190192,RBT1750004908104,,1
MAW027L00198001,RBT1710004923888,,2
PW0P0645BOLP45,RBV0390004923880,,1
MWP7ADT62BK001,RBM1250004923932,,4
A18509900,RBT1750004908103,,1
MYM8SXL52IG001,RBM1250004928203,,2
513988DE9CN4360,RBB0010004920492,,12
MWT8SMA69BK001,RBM1250004923935,,1
5F676B3R0SF0118,RBM0080004923837.SH1400,,1
5F676B3R0SF0118,RBM0080004923837.SH1380,,2
5F676B3R0SF0118,RBM0080004923837.SH1360,,1
5F676B3R0SF0118,RBM0080004923837.SH1390,,2
PXBGOF61213BAA,RBA0010004923909,,4
COCMCF23726LZZ,RBA0010004923906.GL000M,,1
COCMCF23726LZZ,RBA0010004923906.GL000S,,1
COCMCF23726LZZ,RBA0010004923906.GL000L,,1
47277405,RBT0080004920634,,4
PW0P0645BOLU27,RBV0390004923881,,2
21F47806250515,RBS0010004923844,,3
PW0P0645BOL0NO,RBV0390004923879,,1
COCMCF23726GAB,RBA0010004923902.GL000S,,1
COCMCF23726GAB,RBA0010004923902.GL000L,,1
COCMCF23726GAB,RBA0010004923902.GL000M,,1
F852RO6733XB99,RBK0210005026266.GL000S,,2
F852RO6733XB99,RBK0210005026266.GL000M,,1
F852RO8244XA99,RBK0210005026268.GL000M,,1
MWP8SVW50BK001,RBM1250004923934,,3
PXAWVF61213EAI,RBA0010005025956,,3
F852SW7054XA01,RBK0210005025271.GL000M,,2
F852SW7054XA01,RBK0210005025271.GL000L,,2
F852SW89095293,RBK0210005026392.GL000S,,2
F852SW89095293,RBK0210005026392.GL000M,,2
F852SW89095299,RBK0210005026158.GL000M,,2
F852SW89095299,RBK0210005026158.GL000S,,2
F852TO74998201,RBK0210005026162.GL000L,,2
F852TO74998201,RBK0210005026162.GL000S,,4
F852TO74998201,RBK0210005026162.GL000M,,4
F852BL7324XA99,RBK0210005026160.GL000M,,1
F852BL7324XA99,RBK0210005026160.GL000L,,1
F762TO74998126B,RBK0210005025167.GL000M,,1
F762TO74998126B,RBK0210005025167.GL000S,,1
F762TO74998126B,RBK0210005025167.GL000L,,2
F762TO74998101,RBK0210005026263.GL000S,,2
F762TO74998101,RBK0210005026263.GL000M,,4
F762TO74998101,RBK0210005026263.GL000L,,2
43833107,RBT0080004920627,,2
7VA42900A1RMF0SAJ,RBF0030004923920,,4
F765SW1504MD99,RBK0210005026381.GL000S,,2
F765SW1504MD99,RBK0210005026381.GL000M,,2
F765SW1504MD99,RBK0210005026381.GL000L,,1
F755PO0014BA78,RBK0210005026369.GL000S,,2
F755PO0014BA78,RBK0210005026369.GL000L,,2
F755PO0014BA78,RBK0210005026369.GL000M,,1
F755PO0014BA57,RBK0210005026372.GL000M,,2
F755PO0014BA57,RBK0210005026372.GL000S,,2
F755PO0014BA57,RBK0210005026372.GL000L,,2
7VZ035006ODF11S5,RBF0030004923921,,4
F755PO0014BA99,RBK0210005026385.GL000S,,2
F755PO0014BA99,RBK0210005026385.GL000L,,2
F755PO0014BA99,RBK0210005026385.GL01XL,,1
F755PO0014BA99,RBK0210005026385.GL000M,,1
M0012558096,RBM0040004920495,,1
F855TS0064YH01,RBK0210005026376.GL000M,,2
F855TS0064YH01,RBK0210005026376.GL000S,,1
F855SW0014XA99,RBK0210005026389.GL000S,,2
F855SW0014XA99,RBK0210005026389.GL000L,,1
F855SW0014XA99,RBK0210005026389.GL000M,,2
F755TS0914SG78,RBK0210005026377.GL000L,,3
F755TS0914SG78,RBK0210005026377.GL000S,,3
F755TS0914SG78,RBK0210005026377.GL000M,,2
482051D420D1000,RBY0020004905463,,2
PW2S0403VCEW34,RBV0390004864717.SH1380,,1
F755PO0014BA21B,RBK0210005026382.GL000S,,1
F755PO0014BA21B,RBK0210005026382.GL000M,,2
7M016400A1R2F0X93,RBF0030004905459,,2
BB5012B02R001,RBG0060004933859,,4
M0012558981,RBM0040004920497,,2
FAF51600A2VKF0QB0,RBF0030004923926.API050,,1
FAF51600A2VKF0QB0,RBF0030004923926.API046,,1
FAF51600A2VKF0QB0,RBF0030004923926.API048,,1
RVSR81032001,RVH0110004927176,,1
1106403943Q4175,RBA0310004610792,,1
388414J160Y0446,RBA0310003834326,,5
81KW1727GREYMELANGE,RBK0850004973596.GL000M,,2
81KW1727GREYMELANGE,RBK0850004973596.GL000L,,2
81KW1727GREYMELANGE,RBK0850004973596.GL000S,,2
81KW3302BUBBLEGUM,RBK0850004973601,,3
81KW3313BLACKWHITE,RBK0850004973604,,3
81KW3305BLACK,RBK0850004973603,,2
