path,name,code,original-price,price,headline,caption,brand-code,delivery,product-category,display,description_en,color,color_jp,weight_en,weight_jp,measurement_en,measurement_jp,material_en,material_jp
ウィメンズ:革小物,【新品】　Pre-Owned Louis Vuitton Monogram Multicolore Pochette Cl?s 中古ルイ・ヴィトンモノグラム・マルチカラー・ポシェット・クレ,RVSR78891001,33000,33000,送料無料　ルイヴィトン 革小物 キーポーチ,"外観<br> - モノグラムマルチカラーキャンバスボディ<br> - 真鍮のハードウェア<br> - チェーン上のスイベルクラスプ<br> - ジップトップクロージャー<br><br>インテリア<br> - レザーライニング<br> -  Debossedデザイナーレタリング<br><br>調子<br> - レザートリムは緑青を開発しました<br> - ハードウェアの傷<br><br>追加情報<br>オリジナルボックス、オリジナルダストバッグ、デザイナーブックレット、記事タグ付き<br>",,1,,1,"Exterior<br>- Monogram multicolore canvas body <br>- Brass hardware<br>- Swivel clasp on chain<br>- Zip top closure <br><br>Interior<br>- Leather lining<br>- Debossed designer lettering <br><br>Condition<br>- Leather trim has developed a patina<br>- Scratches on hardware <br><br>Additional Information<br>- Comes with original box, original dust bag, designer booklet and article tag",MulticolourMulticolour,マルチカラー,"","","Length 12cm; Height 7cm; Width 0.5cm; Chain Strap Length 9.5cm ","長さ12cm;高さ7cm;幅0.5cm;チェーンストラップ長さ9.5cm","Monogram Multicolore Canvas","モノグラムマルチカラーキャンバス",
ウィメンズ:バッグ,【新品】　Issey Miyake BaoBao Flat Pack Backpack イッセイミヤケバオバオフラットパックバックパック,BB78AG69111,89000,89000,送料無料　三宅一生 バッグ バックパック,"外観<br> - マットPVCボディ<br> - ガンメタル調のハードウェア<br> - シングルトップハンドル、ダブル調節可能なショルダーストラップ<br> - ジップトップクロージャー<br>・ファスナーポケット1つ<br><br>インテリア<br> -  Unlined<br>・ファスナーポケット1つ<br> - エンボス加工されたデザイナーラベル<br>",,1,,1,"Exterior<br>- Matte PVC body <br>- Gunmetal tone hardware<br>- Single top handle, double adjustable shoulder strap <br>- Zip top closure <br>- 1 zipper pocket<br><br>Interior<br>- Unlined <br>- 1 zipper pocket <br>- Embossed designer label ",Light Grey (Designer Colour)Light Grey ,ライトグレー,"","","Length (at base) 34cm; Height 39cm; Width 0.5cm; Handle Drop 5cm; Shoulder Strap Drop at max 36cm ","長さ（ベースで）34cm;高さ39cm;幅0.5cm;ハンドルドロップ5cm;ショルダーストラップドロップ最大36cm","Pvc","Pvc",
ウィメンズ:バッグ,【新品】　Pre-Owned Louis Vuitton Damier Trevi PM 中古ルイヴィトンDamier Trevi PM,RVSR81691001,174000,174000,送料無料　ルイヴィトン バッグ トップハンドル,"外観<br> - ダミエのキャンバスボディ、牛革レザートリム<br> - ゴールドトーンハードウェア<br> - ダブルトップハンドル、調節可能で取り外し可能なショルダーストラップ<br> - ジップトップクロージャー<br> -  4つの保護金属製の足<br><br>インテリア<br> - マイクロスエードライニング<br> - スリップポケット2つ<br> -  Debossedデザイナーラベル<br><br>調子<br> - キャンバス本体に目に見える痕跡がない<br> - バッグの前面左側に傷がついたマーク（レザートリム）<br> - ハードウェアのヘアラインスクラッチ<br><br>追加情報<br> -  Made in France<br> - オリジナルのダストバッグが付属しています<br>",,1,,1,"Exterior<br>- Damier canvas body with cowhide leather trim<br>- Gold tone hardware<br>- Double top handles, adjustable and detachable shoulder strap <br>- Zip top closure<br>- 4 protective metal feet <br><br>Interior<br>- Microsuede lining<br>- 2 slip pockets<br>- Debossed designer label <br><br>Condition<br>- No visible signs of wear on canvas body<br>- A scuffed mark on the front left side of the bag (leather trim)<br>- Hairline scratches on hardware<br><br>Additional Information<br>- Made In France<br>- Comes with original dust bag",Ebene (Designer Colour)Ebene ,エベネ,"","","Length (at base) 34cm; Height 25.5cm; Width 15cm; Handle Drop 13cm; Shoulder Strap Drop at max 24cm","長さ（ベースで）34cm;高さ25.5cm;幅15cm;ハンドルドロップ13cm;ショルダーストラップドロップ（最大24cm）","Cowhide Leather,Damier Canvas","牛革,ダミエキャンバス",
ウィメンズ:バッグ,【新品】　Pre-Owned Miu Miu Matelasse Crossbody 中古Miu Miu Matelasse Crossbody,RVSR81690001,79000,79000,送料無料　MIU MIU バッグ スリング,"外観<br> -  Matelasseラムスキンレザーボディ<br> - シルバートーンのハードウェア<br> - 調節可能で取り外し可能なレザーショルダーストラップ、取り外し可能なチェーンショルダーストラップ<br> - ヒンジ付き閉鎖<br> - デザイナーのレタリングを募集<br><br>インテリア<br> - レザーとファブリックの裏地<br> - スリップポケット2つ<br> - デザイナーのプラーク<br><br>調子<br> - 非常に小さな欠陥で未使用<br> - レザーボディには非常に軽度のくぼみがあり、近くにはデザイナーのレタリングが<br><br>追加情報<br> - オリジナルのダストバッグ、真正カード、デザイナー小冊子が付属<br>",,1,,1,"Exterior<br>- Matelasse lambskin leather body <br>- Silver tone hardware<br>- Adjustable and detachable leather shoulder strap, detachable chain shoulder strap<br>- Hinged closure <br>- Raised designer lettering <br><br>Interior<br>- Leather and fabric lining<br>- 2 slip pockets <br>- Designer plaque <br><br>Condition<br>- Unused with a very minor flaw<br>- Very mild indentations on leather body, near raised designer lettering <br><br>Additional Information<br>- Comes with original dust bag, authenticity card and designer booklet",Cromo (Designer Colour)Cromo ,クロモ,"","","Length (at base) 24cm; Height 17.5cm; Width 2cm; Leather Shoulder Strap Drop at max 60cm; Chain Shoulder Strap Drop 60cm","長さ（ベースで）24cm;高さ17.5cm;幅2cm;革のショルダーストラップは最大60cmで落とします。チェーンショルダーストラップドロップ60cm","Lambs Leather","ラムスレザー",
メンズ:革小物,【新品】　Saint Laurent ID Long Zip Around Wallet Saint Laurent IDロングジップアラウンドウォレット,462359DZEDE1000,86000,69000,送料無料　サンローラン 革小物 ロングウォレット,"外観<br> - クロコ型押しのカーフスキンレザーボディ<br> - 高級シルバートーンのハードウェア<br> - ジップアラウンドクロージャー<br> - デザイナーのプラーク<br><br>インテリア<br> - レザーとファブリックの裏地<br> -  2つの紙幣スリーブ、1つのジッパーコンパートメント、9つのカードスロット、1つのスリップコンパートメント<br> -  Debossedデザイナーレタリング<br>",,1,,1,"Exterior<br>- Croc-embossed calfskin leather body<br>- Aged silver tone hardware<br>- Zip around closure<br>- Designer plaque<br><br>Interior<br>- Leather and fabric lining<br>- 2 bill sleeves, 1 zipper compartment, 9 card slots, 1 slip compartment<br>- Debossed designer lettering",Nero (Designer Colour)Nero ,Nero,"","","Length 19cm; Height 10cm; Width 1.5cm","長さ19cm;高さ10cm;幅1.5cm","Calfskin Leather","カーフスキンレザー",
:革小物,【新品】　Saint Laurent Classic Monogramme Zipped Document Holder サンローランクラシックモノグラムZIPドキュメントホルダー,485628C9H0U1000,108000,86000,送料無料　サンローラン 革小物 ポウチ,"外観<br> - クロコ型押しシープスキンレザーボディ<br> - オニキス調のハードウェア<br> - ジップトップクロージャー<br> - デザイナーのロゴを上げる<br><br>インテリア<br> - 生地の裏地<br> - スリップポケット2枚、カードスロット6枚<br> -  Debossedデザイナーラベル<br>",,1,,1,"Exterior<br>- Croc-embossed sheepskin leather body<br>- Onyx tone hardware<br>- Zip top closure<br>- Raised designer logo<br><br>Interior<br>- Fabric lining<br>- 2 slip pockets, 6 card slots<br>- Debossed designer label",Nero (Designer Colour)Nero ,Nero,"","","Length 38cm; Height 25.5cm; Width 2cm","長さ38cm;高さ25.5cm;幅2cm","Sheepskin Leather","シープスキンレザー",
:革小物,【新品】　Bottega Veneta Intrecciato VN Card Case ボッテガヴェネタIntrecciato VNカードケース,162150V46511000,34000,28000,送料無料　ボッテガ・ヴェネタ 革小物 カードホルダー,"詳細<br> - インテリアレザーカーフスキンレザーボディ<br> - レザーとファブリックの裏地<br> -  7枚のカードスロット<br>",,1,,1,"Details <br>- Intrecciato calfskin leather body<br>- Leather and fabric lining<br>- 7 card slots",Nero (Designer Colour)Nero ,Nero,"","","Length 10cm; Height 8cm; Width 0.3cm ","長さ10cm;高さ8cm;幅0.3cm","Calfskin Leather","カーフスキンレザー",
ウィメンズ:バッグ,【新品】　Proenza Schouler PS1 Large Satchel Proenza Schouler PS1ラージサッチェル,H00003L001B5001,270000,189000,送料無料　PROENZA SCHOULER バッグ トップハンドル,"外観<br> - ラムスキンレザーボディ<br> - 古い金色のハードウェア<br> - シングルトップハンドル、調節可能で着脱可能なショルダーストラップ<br> - リフトロッククロージャー、ダブルストラップファスニング<br> - ファスナーコンパートメント1個<br> - デザイナーのハングタグ<br><br>インテリア<br> - 生地の裏地<br> - ファスナーコンパートメント1つ、ファスナーポケット1つ、磁気スナップタブで固定されたスリップコンパートメント1つ<br> -  Debossedデザイナーレタリング<br><br>追加情報<br> - 受け取った商品には、デザイナーが季節ごとに変更したために描かれた画像とは異なるライニングが付いている場合があります。<br>",,1,,1,"Exterior<br>- Lambskin leather body <br>- Aged gold tone hardware<br>- Single top handle, adjustable and detachable shoulder strap<br>- Lift lock closure, double strap fastenings <br>- 1 zipper compartment <br>- Designer hang tag <br><br>Interior<br>- Fabric lining <br>- 1 zipper compartment, 1 zipper pocket, 1 slip compartment secured by magnetic snap tab<br>- Debossed designer lettering  <br><br>Additional Information<br>- Product received may have different lining from images depicted due to designer-driven changes from season to season.",Midnight (Designer Colour)Midnight ,真夜中,"","","Length 35cm; Height 25cm; Width 14cm; Handle Drop 8cm; Shoulder Strap Drop at max 48cm","長さ35cm;高さ25cm;幅14cm;ハンドルドロップ8cm;ショルダーストラップドロップ（最大48cm）","Lambskin Leather","ラムスキンレザー",
ウィメンズ:革小物,【新品】　Pre-Owned Prada Long Wallet 中古プラダロングウォレット,RVSR80545001,55000,55000,送料無料　プラダ 革小物 ロングウォレット,"外観<br> - サフィアーノレザーボディー<br> - ゴールドトーンハードウェア<br> - ダブルマグネットスナップタブクロージャ<br>・ファスナーポケット1つ<br> - デザイナーのプラーク<br><br>インテリア<br> - レザーライニング<br> -  2札スリーブ、10カードスロット、4スリップポケット、1ファスナーポケット<br> - 取り外し可能なIDカードホルダー×1、カードスロット×2<br> -  Debossedデザイナーレタリング<br><br>調子<br> - 軽い擦り傷<br> - ハードウェアの軽度の傷<br><br>追加情報<br> -  N.A<br>",,1,,1,"Exterior<br>- Saffiano leather body<br>- Gold tone hardware<br>- Double magnetic snap tab closure<br>- 1 zipper pocket<br>- Designer plaque<br><br>Interior<br>- Leather lining<br>- 2 bill sleeves, 10 card slots, 4 slip pockets, 1 zipper pocket<br>- 1 detachable clear ID card holder with 2 card slots<br>- Debossed designer lettering<br><br>Condition<br>- Mild signs of wear<br>- Mild scratches on hardware<br><br>Additional Information<br>- N.A",Wine RedWine Red,ワインレッド,"","","Length 19cm; Height 9cm; Width 2cm","長さ19cm;高さ9cm;幅2cm","Saffiano Leather","サフィアーノレザー",
ウィメンズ:革小物,【新品】　Gucci GG Marmont Continental Wallet グッチGGマルモンコンチネンタル財布,443436DRW1T3120,92000,78000,送料無料　グッチ 革小物 ロングウォレット,"外観<br> - キルティングレザーボディ<br> - 古い金色のハードウェア<br> - スナップタブのクロージャ<br> - ステッチエンボスデザイナーのロゴ<br><br>インテリア<br> - 生地の裏地<br> -  2つの紙幣スリーブ、1つのファスナーコンパートメント、12枚のカードスロット、3つのスリップコンパートメント<br> -  Debossedデザイナーレタリング<br>",,1,,1,"Exterior<br>- Quilted leather body<br>- Aged gold tone hardware<br>- Snap tab closure<br>- Stitched embossed designer logo<br><br>Interior<br>- Fabric lining<br>- 2 bill sleeves, 1 zipper compartment, 12 card slots, 3 slip compartments<br>- Debossed designer lettering",Emerald Green (Designer Colour)Emerald Green ,エメラルドグリーン,"","","Length 19cm; Height 10.5cm; Width 4cm","長さ19cm;高さ10.5cm;幅4cm","Leather","レザー",
ウィメンズ:バッグ,【新品】　Gucci Padlock Small GG Bees Shoulder Bag グッチパドロックスモールGGミツバチショルダーバッグ,4094879F26G8319,217000,184000,送料無料　グッチ バッグ ショルダー,"外観<br> -  GG最高のコーティングされたキャンバスとレザーボディ<br> - ゴールドトーンハードウェア<br> - ダブルチェーンショルダーストラップ<br> - プッシュロック閉鎖<br> - スリップポケット1つ<br> - 蜂プリント<br> - 鍵付きの取り外し可能なクローシェット<br> - 彫刻されたデザイナーのレタリング<br><br>インテリア<br> - マイクロスエードライニング<br> - スリップポケット1つ<br> -  Debossedデザイナーラベル<br>",,1,,1,"Exterior<br>- GG supreme coated canvas and leather body<br>- Gold tone hardware<br>- Double chain shoulder straps<br>- Push lock closure<br>- 1 slip pocket<br>- Bees print<br>- Detachable clochette with keys<br>- Engraved designer lettering<br><br>Interior<br>- Microsuede lining<br>- 1 slip pocket<br>- Debossed designer label",Ebony (Designer Colour)Ebony ,ブラック x ベージュ x 黒檀,"","","Length 20cm; Height 12.5cm; Width 7cm; Shoulder Strap Drop 28cm","長さ20cm;高さ12.5cm;幅7cm;ショルダーストラップドロップ28cm","Leather,Coated Canvas","レザー,コーティングキャンバス",
ウィメンズ:バッグ,【新品】　Prada Soft Calf Impunture Diagramme Handbag 31cm プラダソフトカーフImpuntureダイアグラムハンドバッグ31cm,1BA1652D91F00020001SVOOI,307000,245000,送料無料　プラダ バッグ トップハンドル,"外観<br> - キルティングカーフスキンレザーボディ<br> - シルバートーンのハードウェア<br> - ダブルトップハンドル、取り外し可能なショルダーストラップ<br> - オープントップ<br> - 拡張性のためのサイドスナップタブ<br> - デザイナーのレタリングを募集<br><br>インテリア<br> - レザーとファブリックの裏地<br> - ファスナーポケット1つ、隠しマグネットスナップタブで固定されたスリップポケット1つ<br> - 印刷されたデザイナーのレタリング<br>",,1,,1,"Exterior<br>- Quilted calfskin leather body<br>- Silver tone hardware<br>- Double top handles, detachable shoulder strap<br>- Open top<br>- Side snap tabs for expandability<br>- Raised designer lettering<br><br>Interior<br>- Leather and fabric lining<br>- 1 zipper pocket, 1 slip pocket secured by concealed magnetic snap tab closure<br>- Printed designer lettering",Nero (Designer Colour)Nero ,Nero,"","","Length (at base) 31cm; Height 22cm; Width 15cm; Handle Drop 13cm; Shoulder Strap Drop 46cm","長さ（ベースで）31cm;高さ22cm;幅15cm;ハンドルドロップ13cm;ショルダーストラップドロップ46cm","Calfskin Leather","カーフスキンレザー",
ウィメンズ:革小物,【新品】　Salvatore Ferragamo Double Gancio Card Case  サルバトーレ・フェラガモダブルギャンシオカードケース,22D14806832438,42000,32000,送料無料　サルヴァトーレ・フェラガモ 革小物 カードホルダー,"外観<br> - カーフスキンレザーボディー<br> - ゴールドトーンハードウェア<br> - スナップタブのクロージャ<br> - カードスロット1枚<br> - ダブルギャンシオディテールを上げた<br><br>インテリア<br> - 生地の裏地<br> - カード収納部1個、カードスロット1個<br> - 印刷されたデザイナーのレタリング<br>",,1,,1,"Exterior<br>- Calfskin leather body<br>- Gold tone hardware<br>- Snap tab closure<br>- 1 card slot<br>- Raised double gancio detail<br><br>Interior<br>- Fabric lining<br>- 1 gusseted card compartment, 1 card slot<br>- Printed designer lettering",Nero (Designer Colour)Nero ,Nero,"","","Length 11cm; Height 8cm; Width 2cm","長さ11cm;高さ8cm;幅2cm","Calfskin Leather","カーフスキンレザー",
ウィメンズ:アクセサリー,【新品】　Fendi F is Fendi Silk Shawl フェンディFはフェンディシルクショールです,FXT09100A1CIF0DNB,49000,37000,送料無料　フェニ アクセサリー スカリー,"詳細<br> -  100％シルク<br> - 裾を擦った<br> - ファブリックデザイナーラベル<br>",,1,,1,"Details<br>- 100% silk<br>- Frayed hem <br>- Fabric designer label",CreamCream,ピンク x クリーム,"","","Dimensions 90cm x 90cm","寸法90cm x 90cm","Silk","シルク",
ウィメンズ:バッグ,【新品】　Fendi KAN I F Bag フェンディカンI Fバッグ,8BT284002IHF0PDG,286000,214000,送料無料　フェニ バッグ ショルダー,"外観<br> - カーフスキンレザーボディー<br> - シルバートーンとゴールドトーンのハードウェア<br> - 取り外し可能なトップハンドル、取り外し可能なショルダーストラップ<br> - 磁気スナップタブのクロージャ<br> - 新しいフェンディロゴディテール<br> -  Debossedデザイナーレタリング<br><br>インテリア<br> - スエードライニング<br> - スリップポケット1つ<br> -  Debossedデザイナーラベル<br>",,1,,1,"Exterior<br>- Calfskin leather body<br>- Silver tone and gold tone hardware<br>- Detachable top handle, detachable shoulder strap<br>- Magnetic snap tab closure<br>- New Fendi logo detail<br>- Debossed designer lettering<br><br>Interior<br>- Suede lining<br>- 1 slip pocket<br>- Debossed designer label ",Blu Scuro (Designer Colour)Blu Scuro ,ブルースクーロ,"","","Length 25cm; Height 18cm; Width 10cm; Handle Drop 17cm; Shoulder Strap Drop 44cm","長さ25cm;高さ18cm;幅10cm;ハンドルドロップ17cm;ショルダーストラップドロップ44cm","Calfskin Leather","カーフスキンレザー",
ウィメンズ:アクセサリー,【新品】　Fendi Signature Shawl フェンディシグネチャーショール,FXT924009EAF04S5,56000,42000,送料無料　フェニ アクセサリー スカリー,"詳細<br> - シルク60％、ウール40％<br> - 裾を擦った<br> - デザイナーのラベル<br>",,1,,1,"Details<br>- 60% silk and 40% wool<br>- Frayed hem <br>- Designer label ",Ray Grey (Designer Colour)Ray Grey ,レイ・グレイ,"","","Dimensions 140cm x 140cm","サイズ140cm x 140cm","Silk,Wool","シルク,ウール",
ウィメンズ:革小物,【新品】　Bottega Veneta Intrecciato VN Card Case ボッテガヴェネタIntrecciato VNカードケース,120701V46511000,49000,39000,送料無料　ボッテガ・ヴェネタ 革小物 カードホルダー,"外観<br> - インテリアレザーカーフスキンレザーボディ<br> - 二重<br> - スリップポケット1つ<br><br>インテリア<br> - レザーライニング<br> -  4枚のカードスロット、2枚のスリップポケット<br> -  Debossedデザイナーレタリング<br>",,1,,1,"Exterior<br>- Intrecciato calfskin leather body<br>- Bifold<br>- 1 slip pocket<br><br>Interior<br>- Leather lining <br>- 4 card slots, 2 slip pockets<br>- Debossed designer lettering",Nero (Designer Colour)Nero ,Nero,"","","Length 7.5cm; Height 11cm; Width 1.5cm ","長さ7.5cm;高さ11cm;幅1.5cm","Calfskin Leather","カーフスキンレザー",
メンズ:革小物,【新品】　Bottega Veneta Intrecciato VN Bifold Wallet ボッテガヴェネタIntrecciato VN Bifold Wallet,113993V46514013,59000,47000,送料無料　ボッテガ・ヴェネタ 革小物 BI-FOLD WALLET,"外観<br> - インテリアレザーカーフスキンレザーボディ<br> - 二重<br><br>インテリア<br> - レザーとファブリックの裏地<br> -  2枚の紙幣スリーブ、8枚のカードスロット、2枚のスリップポケット<br> -  Debossedデザイナーレタリング<br>",,1,,1,"Exterior<br>- Intrecciato calfskin leather body <br>- Bifold<br><br>Interior<br>- Leather and fabric lining<br>- 2 bill sleeves, 8 card slots, 2 slip pockets<br>- Debossed designer lettering",Baltic (Designer Colour)Baltic ,バルト,"","","Length 11.5cm; Height 9.5cm; Width 2.5cm  ","長さ11.5cm;高さ9.5cm;幅2.5cm","Calfskin Leather","カーフスキンレザー",
ウィメンズ:革小物,【新品】　Pre-Owned Saint Laurent Monogramme Flap Wallet 中古サンローランモノグラムフラップウォレット,RVSR78930001,68000,68000,送料無料　サンローラン 革小物 ロングウォレット,"外観<br> - Matelass?グレインデポードルカーフスキンレザーボディ<br> - ガンメタル調のハードウェア<br> - スナップタブのクロージャ<br> - デザイナーのレタリングを募集<br><br>インテリア<br> - レザーライニング<br> -  2枚の紙幣袖、12枚のカードポケット、1枚のジッパー収納部、2枚のスリップポケット<br> -  Debossedデザイナーレタリング<br><br>調子<br> - ハードウェアのヘアラインスクラッチ<br> - フラップの下面に軽度の傷があります<br><br>追加情報<br>オリジナルボックス、ダストバッグ付き<br>",,1,,1,"Exterior<br>- Matelass? grain de poudre calfskin leather body<br>- Gunmetal tone hardware<br>- Snap tab closure<br>- Raised designer lettering<br><br>Interior<br>- Leather lining<br>- 2 bill sleeves, 12 card pockets, 1 zipper compartment, 2 slip pockets<br>- Debossed designer lettering<br><br>Condition<br>- Hairline scratches on hardware<br>- Mild scratches on underside of flap<br><br>Additional Information<br>- Comes with original box, dust bag",Marinette (Designer Colour)Marinette ,マリネット,"","","Length 19cm; Height 10cm; Width 3cm","長さ19cm;高さ10cm;幅3cm","Calfskin Leather","カーフスキンレザー",
ウィメンズ:バッグ,【新品】　Proenza Schouler PS1 Large Leather Satchel Proenza Schouler PS1ラージレザーサッチェル,H00003L001C0000,270000,189000,送料無料　PROENZA SCHOULER バッグ トップハンドル,"外観<br> - ラムスキンレザーボディ<br> - シルバートーンのハードウェアを磨いた<br> - シングルトップハンドル、調節可能で着脱可能なショルダーストラップ<br> - リフトロッククロージャー、ダブルストラップファスニング<br> - ファスナーコンパートメント1個<br> - デザイナーのハングタグ<br><br>インテリア<br> - 生地の裏地<br> - ファスナーコンパートメント1つ、ファスナーポケット1つ、磁気スナップタブで固定されたスリップコンパートメント1つ<br> -  Debossedデザイナーレタリング<br><br>追加情報<br> - 受け取った商品には、デザイナーが季節ごとに変更したために描かれた画像とは異なるライニングが付いている場合があります。<br>",,1,,1,"Exterior<br>- Lambskin leather body <br>- Brushed silver tone hardware<br>- Single top handle, adjustable and detachable shoulder strap<br>- Lift lock closure, double strap fastenings <br>- 1 zipper compartment <br>- Designer hang tag <br><br>Interior<br>- Fabric lining <br>- 1 zipper compartment, 1 zipper pocket, 1 slip compartment secured by magnetic snap tab<br>- Debossed designer lettering  <br><br>Additional Information<br>- Product received may have different lining from images depicted due to designer-driven changes from season to season.",Black (Designer Colour)Black ,ブラック,"","","Length 35cm; Height 25cm; Width 14cm; Handle Drop 8cm; Shoulder Strap Drop at max 48cm","長さ35cm;高さ25cm;幅14cm;ハンドルドロップ8cm;ショルダーストラップドロップ（最大48cm）","Lambskin Leather","ラムスキンレザー",
ウィメンズ:バッグ,【新品】　Pre-Owned Stella McCartney Falabella Quilted Small Tote 中古ステラマッカートニーファラベラキルト小型トート,SB261063W94776110001,49000,49000,送料無料　ステラマッカートニー バッグ TOTE,"外観<br> - キルティングフェイクレザーボディ<br> - ガンメタル調のハードウェア<br> - ダブルショルダーストラップ<br> - 磁気スナップタブのクロージャ<br> - ホイップステッチとチェーンの詳細<br> - デザイナーの魅力<br><br>インテリア<br> - 生地の裏地<br> - ファスナーコンパートメント1個<br> - 印刷されたデザイナーのレタリング<br><br>調子<br> - 人工皮革本体に目に見える痕跡がない<br> - ハードウェアのヘアラインスクラッチ<br><br>追加情報<br>- イタリア製<br> - オリジナルのダストバッグとデザイナー小冊子が付属<br>",,1,,1,"Exterior<br>- Quilted faux leather body <br>- Gunmetal tone hardware<br>- Double shoulder straps <br>- Magnetic snap tab closure<br>- Whipstitch and chain detail <br>- Designer charm <br><br>Interior<br>- Fabric lining<br>- 1 zipper compartment<br>- Printed designer lettering <br><br>Condition<br>- No visible signs of wear on faux leather body<br>- Hairline scratches on hardware<br><br>Additional Information<br>- Made In Italy<br>- Comes with original dust bag and designer booklet",Plum (Designer Colour)Plum ,梅,"","","Length (at base) 34cm; Height 35cm; Width 7.5cm; Shoulder Strap Drop 23cm","長さ（ベースで）34cm;高さ35cm;幅7.5cm;ショルダーストラップドロップ23cm","Faux Leather","人口皮革",
ウィメンズ:バッグ,【新品】　Pre-Owned Balenciaga Giant Silver Town 中古バレンシアガ・ジャイアントシルバータウン,SB285434D94JN6216001,71000,71000,送料無料　バレンシアガ バッグ トップハンドル,"外観<br> - ヴィンテージ工芸のラムスキンレザーボディ<br> - パラジウムハードウェア<br> - ダブルホイップステッチのトップハンドル、調節可能で着脱可能なショルダーストラップ<br> - 両面ファスナー開閉<br>・ファスナーポケット1つ<br> - 巨大なスタッド<br><br>インテリア<br> - 生地の裏地<br> - ファスナーポケット1つ、スリップポケット2つ<br> - 革張りのハンドミラー<br> -  Debossedデザイナーラベル<br><br>調子<br> - 革は味付けしています<br> - 軽く傷ついたエッジ<br><br>追加情報<br>- イタリア製<br> - オリジナルのダストバッグとデザイナー小冊子が付属<br>",,1,,1,"Exterior<br>- Vintage crafted lambskin leather body<br>- Palladium hardware<br>- Double whip stitched top handles, adjustable and detachable shoulder strap<br>- Two-way zip top closure<br>- 1 zipper pocket<br>- Giant studs<br><br>Interior<br>- Fabric lining<br>- 1 zipper pocket, 2 slip pockets<br>- Leather framed hand mirror <br>- Debossed designer label<br><br>Condition<br>- Leather has seasoned<br>- Lightly scuffed edges<br><br>Additional Information<br>- Made In Italy<br>- Comes with original dust bag and designer booklet",Rouge Cerise (Designer Colour)Rouge Cerise ,ルージュ・セリーズ,"","","Length 34cm; Height 23cm; Width 7cm; Handle Drop 11cm; Shoulder Strap Drop at max 52cm","長さ34cm;高さ23cm;幅7cm;ハンドルドロップ11cm;ショルダーストラップドロップ（最大52cm）","Vintage Crafted Lambskin Leather","ヴィンテージ製のラムスキンレザー",
ウィメンズ:バッグ,【新品】　Pre-Owned Givenchy Antigona Shopping Small Tote 中古Givenchyアンティゴナショッピングスモールトート,SBBB05317424004S001,88000,88000,送料無料　支給 バッグ TOTE,"外観<br> - スター穿孔カーフスキンレザーボディ<br> - シルバートーンのハードウェア<br> - ダブルトップハンドル<br> - オープントップ<br> - デザイナーのレタリングを募集<br><br>インテリア<br> - 生地の裏地<br> - 取り外し可能なファスナーポーチ<br><br>調子<br> - レザーボディの軽い折り目<br> - ベース上のインデントマーク<br><br>追加情報<br>- イタリア製<br> - オリジナルのダストバッグが付属しています<br>",,1,,1,"Exterior<br>- Star perforated calfskin leather body<br>- Silver tone hardware<br>- Double top handles<br>- Open top<br>- Raised designer lettering<br><br>Interior<br>- Fabric lining<br>- Removable zipper pouch<br><br>Condition<br>- Light creases on leather body<br>- Indentation marks on the base<br><br>Additional Information<br>- Made In Italy<br>- Comes with original dust bag",Black (Designer Colour)Black ,ブラック,"","","Length (at base) 32cm; Height 27cm; Width 15cm; Shoulder Strap Drop 18cm","長さ（ベースで）32cm;高さ27cm;幅15cm;ショルダーストラップドロップ18cm","Calfskin Leather","カーフスキンレザー",
ウィメンズ:バッグ,【新品】　Pre-Owned Givenchy Small Pandora 中古Givenchy Small Pandora,SBBB05251013001S001,106000,106000,送料無料　支給 バッグ トップハンドル,"外観<br> - ゴートスキンレザーボディー<br> - シルバートーンのハードウェア<br> - シングルトップハンドル、取り外し可能なショルダーストラップ<br> - ジップトップクロージャー<br> - ファスナーコンパートメント1個<br> - デザイナーのレタリングを募集<br><br>インテリア<br> - 生地の裏地<br> - ファスナーポケット1つ、スリップポケット2つ<br> -  Debossedデザイナーラベル<br><br>調子<br> - 革の身体に目に見える兆候はない<br> - ハンドルのための右の革のループの緩い糸<br><br>追加情報<br>- イタリア製<br> - デザイナーのダストバッグと元のデザイナー小冊子が付属しています<br>",,1,,1,"Exterior<br>- Goatskin leather body<br>- Silver tone hardware<br>- Single top handle, detachable shoulder strap <br>- Zip top closure<br>- 1 zipper compartment <br>- Raised designer lettering<br><br>Interior<br>- Fabric lining<br>- 1 zipper pocket, 2 slip pockets <br>- Debossed designer label<br><br>Condition<br>- No visible signs of wear on leather body<br>- Loose threads on right leather loop for the handle<br><br>Additional Information<br>- Made In Italy<br>- Comes with a designer dust bag and original designer booklet",Black (Designer Colour)Black ,ブラック,"","","Length 27cm; Height 21cm; Width 21cm; Handle Drop 17cm; Shoulder Strap Drop 60cm","長さ27cm;高さ21cm;幅21cm;ハンドルドロップ17cm;ショルダーストラップドロップ60cm","Goatskin Leather","ゴートスキンレザー",
ウィメンズ:革小物,【新品】　Prada Saffiano Metal Flap Wallet プラダサファイアメタルフラップウォレット,1MH132QWAF00160001G2ZCH,96000,77000,送料無料　プラダ 革小物 ロングウォレット,"外観<br> - サフィアーノレザーボディー<br> - ゴールドトーンハードウェア<br> - ダブルスナップタブのクロージャ<br>・ファスナーポケット1つ<br> - デザイナーのレタリングを募集<br><br>インテリア<br> - レザーとファブリックの裏地<br> -  2枚の紙幣札、10枚のカードスロット、1枚のファスナーコンパートメント、4枚のスリップコンパートメント<br> - 取り外し可能なカードホルダー（2枚のカードスロット、1枚のIDウィンドウをクリア）<br> -  Debossedデザイナーレタリング<br>",,1,,1,"Exterior<br>- Saffiano leather body<br>- Gold tone hardware<br>- Double snap tab closure<br>- 1 zipper pocket<br>- Raised designer lettering <br><br>Interior<br>- Leather and fabric lining<br>- 2 bill sleeves, 10 card slots, 1 zipper compartment, 4 slip compartments<br>- Detachable card holder with 2 card slots, 1 clear ID window<br>- Debossed designer lettering",Bluette (Designer Colour)Bluette ,Bluette,"","","Length 19cm; Height 9cm; Width 2.5cm","長さ19cm;高さ9cm;幅2.5cm","Saffiano Leather","サフィアーノレザー",
ウィメンズ:革小物,【新品】　Prada Saffiano Multicolore Long Flap Wallet プラダサフィアーノマルチカラーロングフラップウォレット,1MH132ZLPF0BTZ0001G2ZCH,96000,77000,送料無料　プラダ 革小物 ロングウォレット,"外観<br> - バイカラーリングサファイアレザーボディ<br> - ゴールドトーンハードウェア<br> - ダブルスナップタブクロージャ<br>・ファスナーポケット1つ<br> - デザイナーのレタリングを募集<br><br>インテリア<br> - レザーとファブリックの裏地<br> -  2枚の紙幣札、10枚のカードスロット、1枚のファスナーコンパートメント、4枚のスリップコンパートメント<br> - 取り外し可能なカードホルダー（2枚のカードスロット、1枚のIDウィンドウをクリア）<br> -  Debossedデザイナーレタリング<br>",,1,,1,"Exterior<br>- Bicoloured saffiano leather body<br>- Gold tone hardware<br>- Double snap tab closures<br>- 1 zipper pocket<br>- Raised designer lettering<br><br>Interior<br>- Leather and fabric lining<br>- 2 bill sleeves, 10 card slots, 1 zipper compartment, 4 slip compartments<br>- Detachable card holder with 2 card slots, 1 clear ID window<br>- Debossed designer lettering",Peonia (Designer Colour)Peonia ,ペタロ x ペオニア,"","","Length 19cm; Height 9cm; Width 3cm","長さ19cm;高さ9cm;幅3cm","Saffiano Leather","サフィアーノレザー",
ウィメンズ:バッグ,【新品】　Pre-Owned Chanel Mademoiselle Bowling Bag 中古シャネルマドモアゼルボウリングバッグ,SC2020805A,168000,168000,送料無料　シャネル バッグ ショルダー,"外観<br> - キルティング金属製のラムスキンレザーボディ<br> - 古い金色のハードウェア<br> - ダブルチェーンショルダーストラップ<br> - オープントップ<br> - インターロッキングCデザイナーの魅力<br><br>インテリア<br> - 生地の裏地<br> - ファスナーポケット1つ、カードスロット1つ<br> -  Debossedデザイナーレタリング<br><br>調子<br> - レザーボディに見える皺のライン<br><br>追加情報<br>- イタリア製<br> - オリジナルのダストバッグ、真正カードと真正性のステッカーが付属しています<br>",,1,,1,"Exterior<br>- Quilted metallic lambskin leather body<br>- Aged gold tone hardware<br>- Double chain shoulder straps<br>- Open top<br>- Interlocking C designer charm<br><br>Interior<br>- Fabric lining<br>- 1 zipper compartment, 1 zipper pocket, 1 card slot<br>- Debossed designer lettering <br><br>Condition<br>- Visible crease lines on leather body<br><br>Additional Information<br>- Made In Italy<br>- Comes with original dust bag, authenticity card and authenticity sticker",GoldGold,ゴールド,"","","Length (at base) 32cm; Height 18cm; Width 16cm; Shoulder Strap Drop 19cm","長さ（ベースで）32cm;高さ18cm;幅16cm;ショルダーストラップドロップ19cm","Lambskin Leather","ラムスキンレザー",
ウィメンズ:バッグ,【新品】　Pre-Owned Prada Saffiano Lux Galleria Shopping Bag 26cm 中古プラダサフィアーノラックスガレリアショッピングバッグ26cm,SC2020851B,124000,124000,送料無料　プラダ バッグ トップハンドル,"外観<br> - サフィアーノレザーボディー<br> - ゴールドトーンハードウェア<br> - ダブルトップハンドル、調節可能で取り外し可能なショルダーストラップ<br> - オープントップ<br> - 拡張性のためのサイドスナップタブ<br> - 鍵付きの取り外し可能なクローシェット<br> -  4つの保護金属製の足<br> - デザイナーのプラーク<br><br>インテリア<br> - 生地の裏地<br> - ジッパー式コンパートメント2個、ファスナーポケット1個、スリップポケット1個<br> - デザイナーのプラーク<br><br>調子<br> - 目に見える痕跡がない<br><br>追加情報<br>- イタリア製<br> - オリジナルのダストバッグ、商品タグ、真正カード、デザイナー小冊子が付属<br>",,1,,1,"Exterior<br>- Saffiano leather body<br>- Gold tone hardware<br>- Double top handles, adjustable and detachable shoulder strap<br>- Open top<br>- Side snap tabs for expandability<br>- Detachable clochette with key ring<br>- 4 protective metal feet<br>- Designer plaque<br><br>Interior<br>- Fabric lining<br>- 2 zipper compartments, 1 zipper pocket, 1 slip pocket<br>- Designer plaque<br><br>Condition<br>- No visible signs of wear<br><br>Additional Information<br>- Made In Italy<br>- Comes with original dust bag, article tag, authenticity card and designer booklet",Talco (Designer Colour)Talco ,タルコ,"","","Length 26cm; Height 17.5cm; Width 10.5cm; Handle Drop 9cm; Shoulder Strap Drop at max 59cm","長さ26cm;高さ17.5cm;幅10.5cm;ハンドルドロップ9cm;ショルダーストラップドロップ最大59cm","Saffiano Leather","サフィアーノレザー",
ウィメンズ:バッグ,【新品】　Pre-Owned Louis Vuitton Monogram Empreinte Lumineuse PM 中古ルイ・ヴィトンモノグラム・エンペレント・ルミネーズPM,SC2020773B,150000,150000,送料無料　ルイヴィトン バッグ ショルダー,"外観<br> -  Monogram Empreinteカーフスキンレザーボディ<br> - ゴールドトーンハードウェア<br> - ダブルトップハンドル、調節可能で取り外し可能なショルダーストラップ<br> - 両面ファスナー開閉<br>・ファスナーポケット1つ<br> - メタルDリング1個<br> - キーによるデザイナーの南京錠<br><br>インテリア<br> - 生地の裏地<br> - ファスナーポケット1つ、スリップポケット2つ<br> -  Debossedデザイナーラベル<br><br>調子<br> - 目に見える痕跡がない<br><br>追加情報<br> - オリジナルのダストバッグ、記事タグ、デザイナー小冊子が付属<br>",,1,,1,"Exterior<br>- Monogram Empreinte calfskin leather body<br>- Gold tone hardware<br>- Double top handles, adjustable and detachable shoulder strap<br>- Two-way zip top closure<br>- 1 zipper pocket<br>- 1 metal D-ring <br>- Designer padlock with keys<br><br>Interior<br>- Fabric lining<br>- 1 zipper pocket, 2 slip pockets<br>- Debossed designer label<br><br>Condition<br>- No visible signs of wear<br><br>Additional Information<br>- Comes with original dust bag, article tag and designer booklet",Ombre (Designer Colour)Ombre ,オンブル,"","","Length (at widest) 43cm; Length (at base) 34cm; Height 30cm; Width 18cm; Handle Drop 20cm; Shoulder Strap Drop at max 48cm","長さ（最も広い）43cm;長さ（ベースで）34cm;高さ30cm;幅18cm;ハンドルドロップ20cm;ショルダーストラップドロップ（最大48cm）","Monogram Empreinte Calfskin Leather","モノグラムエンフレーテッドカーフスキンレザー",
ウィメンズ:革小物,【新品】　Prada Saffiano Metal Wallet プラダサファイアメタル財布,1ML018QWAF00020001G,80000,64000,送料無料　プラダ 革小物 ショート札入れ,"外観<br> - サフィアーノレザーボディー<br> - ゴールドトーンハードウェア<br> - スナップタブストラップのクロージャ<br> - コンパートメント周りの半ジップ<br> - デザイナーのレタリングを募集<br><br>インテリア<br> - レザーとファブリックの裏地<br> -  1札スリーブ、4枚のカードスロット、5枚のスリップポケット<br> -  Debossedデザイナーレタリング<br>",,1,,1,"Exterior<br>- Saffiano leather body <br>- Gold tone hardware<br>- Snap tab strap closure<br>- 1 half zip around compartment<br>- Raised designer lettering<br><br>Interior<br>- Leather and fabric lining<br>- 1 bill sleeve, 4 card slots, 5 slip pockets<br>- Debossed designer lettering ",Nero (Designer Colour)Nero ,Nero,"","","Length 12cm; Height 9cm; Width 3cm","長さ12cm;高さ9cm;幅3cm","Saffiano Leather","サフィアーノレザー",
ウィメンズ:革小物,【新品】　Prada Saffiano Metal Long Flap Wallet プラダサフィアノメタルロングフラップウォレット,1MH132QWAF04420001G2ZCH,96000,77000,送料無料　プラダ 革小物 ロングウォレット,"外観<br> - サフィアーノレザーボディー<br> - ゴールドトーンハードウェア<br> - ダブルスナップタブクロージャ<br> - ファスナーコンパートメント1個<br> - デザイナーのレタリングを募集<br><br>インテリア<br> - レザーとファブリックの裏地<br> -  2札スリーブ、10カードスロット、1ジッパーコンパートメント、4スリップポケット<br> -  Debossedデザイナーレタリング<br><br>追加情報<br> - 取り外し可能なカードホルダーが2つのカードスロットと1つのクリアIDウィンドウ付き<br>",,1,,1,"Exterior<br>- Saffiano leather body<br>- Gold tone hardware<br>- Double snap tab closures<br>- 1 zipper compartment<br>- Raised designer lettering<br><br>Interior<br>- Leather and fabric lining<br>- 2 bill sleeves, 10 card slots, 1 zipper compartment, 4 slip pockets<br>- Debossed designer lettering<br><br>Additional Information<br>- Comes with detachable card holder with 2 card slots and 1 clear ID window",Petalo (Designer Colour)Petalo ,ペタロ,"","","Length 19cm; Height 9.5cm; Width 3cm","長さ19cm;高さ9.5cm;幅3cm","Saffiano Leather","サフィアーノレザー",
ウィメンズ:革小物,【新品】　Prada Saffiano Metal Wallet プラダサファイアメタル財布,1ML018QWAF00160001G,80000,64000,送料無料　プラダ 革小物 ショート札入れ,"外観<br> - サフィアーノレザーボディー<br> - ゴールドトーンハードウェア<br> - スナップタブストラップのクロージャ<br> - コンパートメント周りの半ジップ<br> - デザイナーのレタリングを募集<br><br>インテリア<br> - レザーとファブリックの裏地<br> -  1札スリーブ、4枚のカードスロット、5枚のスリップポケット<br> -  Debossedデザイナーレタリング<br>",,1,,1,"Exterior<br>- Saffiano leather body <br>- Gold tone hardware<br>- Snap tab strap closure<br>- 1 half zip around compartment<br>- Raised designer lettering<br><br>Interior<br>- Leather and fabric lining<br>- 1 bill sleeve, 4 card slots, 5 slip pockets<br>- Debossed designer lettering ",Bluette (Designer Colour)Bluette ,Bluette,"","","Length 12cm; Height 9cm; Width 3cm","長さ12cm;高さ9cm;幅3cm","Saffiano Leather","サフィアーノレザー",
ウィメンズ:革小物,【新品】　Prada Saffiano Metal Medium Flap Wallet プラダサフィアーノメタルミディアムフラップウォレット,1ML005QWAF00020001G,81000,65000,送料無料　プラダ 革小物 ショート札入れ,"外観<br> - サフィアーノレザーボディー<br> - ゴールドトーンハードウェア<br> - スナップタブのクロージャ<br> - デザイナーのレタリングを募集<br><br>インテリア<br> - レザーとファブリックの裏地<br> -  1札スリーブ、21枚のカードスロット、1つのファスナーポケット、3つのスリップポケット<br> - 印刷されたデザイナーのレタリング<br>",,1,,1,"Exterior<br>- Saffiano leather body<br>- Gold tone hardware<br>- Snap tab closure<br>- Raised designer lettering<br><br>Interior<br>- Leather and fabric lining<br>- 1 bill sleeve, 21 card slots, 1 zipper pocket, 3 slip pockets<br>- Printed designer lettering",Nero (Designer Colour)Nero ,Nero,"","","Length (at base) 16cm; Height 9cm; Width 3.5cm","長さ（ベースで）16cm;高さ9cm;幅3.5cm","Saffiano Leather","サフィアーノレザー",
ウィメンズ:革小物,【新品】　Prada Saffiano Metal Long Flap Wallet プラダサフィアノメタルロングフラップウォレット,1MH132QWAF068Z0001G2ZCH,96000,77000,送料無料　プラダ 革小物 ロングウォレット,"外観<br> - サフィアーノレザーボディー<br> - ゴールドトーンハードウェア<br> - ダブルスナップタブのクロージャ<br> - ファスナーコンパートメント1個<br> - デザイナーのレタリングを募集<br><br>インテリア<br> - レザーとファブリックの裏地<br> -  2札スリーブ、10カードスロット、1ジッパーコンパートメント、4スリップポケット<br> -  Debossedデザイナーレタリング<br><br>追加情報<br> - 取り外し可能なカードホルダーが2つのカードスロットと1つのクリアIDウィンドウ付き<br>",,1,,1,"Exterior<br>- Saffiano leather body<br>- Gold tone hardware<br>- Double snap tab closure<br>- 1 zipper compartment<br>- Raised designer lettering<br><br>Interior<br>- Leather and fabric lining<br>- 2 bill sleeves, 10 card slots, 1 zipper compartment, 4 slip pockets<br>- Debossed designer lettering<br><br>Additional Information<br>- Comes with detachable card holder with 2 card slots and 1 clear ID window",Fuoco (Designer Colour)Fuoco ,フーコ,"","","Length 19cm; Height 9.5cm; Width 3cm","長さ19cm;高さ9.5cm;幅3cm","Saffiano Leather","サフィアーノレザー",
ウィメンズ:革小物,【新品】　Prada Saffiano Metal Short Wallet プラダサファイアメタルショート財布,1ML225QHHF00020001G,79000,63000,送料無料　プラダ 革小物 ショート札入れ,"外観<br> - サフィアーノレザーボディー<br> - ゴールドトーンハードウェア<br> - スナップタブのクロージャ<br> - ファスナーコンパートメント1個<br> - デザイナーのレタリングを募集<br><br>インテリア<br> - レザーとファブリックの裏地<br> -  1枚の紙幣札、10枚のカードスロット、3枚のスリップポケット<br> -  Debossedデザイナーレタリング<br>",,1,,1,"Exterior<br>- Saffiano leather body<br>- Gold tone hardware<br>- Snap tab closure<br>- 1 zipper compartment<br>- Raised designer lettering<br><br>Interior<br>- Leather and fabric lining<br>- 1 bill sleeve, 10 card slots, 3 slip pockets<br>- Debossed designer lettering",Nero (Designer Colour)Nero ,Nero,"","","Length 14cm; Height 9.5cm; Width 2.5cm","長さ14cm;高さ9.5cm;幅2.5cm","Saffiano Leather","サフィアーノレザー",
ウィメンズ:革小物,【新品】　Prada Saffiano Metal Cellphone Sleeve プラダサファイアメタル携帯電話スリーブ,1ZH029QWAF068Z0001G,88000,71000,送料無料　プラダ 革小物 ロングウォレット,"外観<br> - サフィアーノレザーボディー<br> - ゴールドトーンハードウェア<br> - 調節可能で着脱可能なリストストラップ、取り外し可能なチェーンショルダーストラップ<br> - ダブルマグネットスナップタブクロージャ<br> - デザイナーのレタリングを募集<br><br>インテリア<br> - レザーとファブリックの裏地<br> -  1つのiPhoneコンパートメント、1つのファスナーポケット、2つのカードスロット、3つのスリップコンパートメント<br> -  Debossedデザイナーレタリング<br><br>追加情報<br> -  iPhone 7はiPhone 7 Plusに適合<br>",,1,,1,"Exterior<br>- Saffiano leather body<br>- Gold tone hardware<br>- Adjustable and detachable wristlet strap, detachable chain shoulder strap<br>- Double magnetic snap tab closure<br>- Raised designer lettering<br><br>Interior<br>- Leather and fabric lining<br>- 1 iPhone compartment, 1 zipper pocket, 2 card slots, 3 slip compartments<br>- Debossed designer lettering<br><br>Additional Information<br>- iPhone compartment fits up to iPhone 7 Plus",Fuoco (Designer Colour)Fuoco ,フーコ,"","","Length 18.5cm; Height 10cm; Width 4cm; Wristlet Strap Drop at max 18cm; Shoulder Strap Drop 55cm","長さ18.5cm;高さ10cm;幅4cm;最大18cmでのストラップドロップショルダーストラップドロップ55cm","Saffiano Leather","サフィアーノレザー",
ウィメンズ:革小物,【新品】　Prada Saffiano Metal Cellphone Sleeve プラダサファイアメタル携帯電話スリーブ,1ZH029QWAF00020001G,88000,71000,送料無料　プラダ 革小物 ロングウォレット,"外観<br> - サフィアーノレザーボディー<br> - ゴールドトーンハードウェア<br> - 調節可能で着脱可能なリストストラップ、取り外し可能なチェーンショルダーストラップ<br> - ダブルマグネットスナップタブクロージャ<br> - デザイナーのレタリングを募集<br><br>インテリア<br> - レザーとファブリックの裏地<br> -  1つのiPhoneコンパートメント、1つのファスナーポケット、2つのカードスロット、3つのスリップコンパートメント<br> -  Debossedデザイナーレタリング<br><br>追加情報<br> -  iPhone 7はiPhone 7 Plusに適合<br>",,1,,1,"Exterior<br>- Saffiano leather body<br>- Gold tone hardware<br>- Adjustable and detachable wristlet strap, detachable chain shoulder strap<br>- Double magnetic snap tab closure<br>- Raised designer lettering<br><br>Interior<br>- Leather and fabric lining<br>- 1 iPhone compartment, 1 zipper pocket, 2 card slots, 3 slip compartments<br>- Debossed designer lettering<br><br>Additional Information<br>- iPhone compartment fits up to iPhone 7 Plus",Nero (Designer Colour)Nero ,Nero,"","","Length 18.5cm; Height 10cm; Width 4cm; Wristlet Strap Drop at max 18cm; Shoulder Strap Drop 55cm","長さ18.5cm;高さ10cm;幅4cm;最大18cmでのストラップドロップショルダーストラップドロップ55cm","Saffiano Leather","サフィアーノレザー",
ウィメンズ:革小物,【新品】　Prada Saffiano Shine Short Wallet プラダサフィアーノシャインショート財布,1MV2042EBWF00020001,51000,41000,送料無料　プラダ 革小物 ショート札入れ,"外観<br> - サフィアーノレザーボディー<br> - オニキスとゴールドトーンのハードウェア<br> - スナップタブのクロージャ<br> - デザイナーのレタリングを募集<br><br>インテリア<br> - レザーとファブリックの裏地<br> -  1札スリーブ、3カードスロット、1コインコンパートメント、2スリップポケット<br> -  Debossedデザイナーレタリング<br>",,1,,1,"Exterior<br>- Saffiano leather body<br>- Onyx tone and gold tone hardware<br>- Snap tab closure<br>- Raised designer lettering<br><br>Interior<br>- Leather and fabric lining<br>- 1 bill sleeve, 3 card slots, 1 coin compartment, 2 slip pockets<br>- Debossed designer lettering ",Nero (Designer Colour)Nero ,Nero,"","","Length 11cm; Height 9cm; Width 2cm","長さ11cm;高さ9cm;幅2cm","Saffiano Leather","サフィアーノレザー",
ウィメンズ:革小物,【新品】　Prada Saffiano 1 Pochette プラダサフィアノ1ポシェット,1NH004PN9F00020001G,82000,66000,送料無料　プラダ 革小物 WRISTLET,"外観<br> - サフィアーノレザーボディー<br> - ゴールドトーンハードウェア<br> - シングルショルダーストラップ<br> - ジップトップクロージャー<br> - デザイナーのレタリングを募集<br><br>インテリア<br> - 生地の裏地<br> - スリップポケット1つ、カードスロット4つ<br> - デザイナーのプラーク<br>",,1,,1,"Exterior<br>- Saffiano leather body<br>- Gold tone hardware<br>- Single shoulder strap<br>- Zip top closure<br>- Raised designer lettering<br><br>Interior<br>- Fabric lining<br>- 1 slip pocket, 4 card slots<br>- Designer plaque",Nero (Designer Colour)Nero ,Nero,"","","Length 23cm; Height 15cm; Width 1cm; Shoulder Strap Drop 18cm","奥行き23cm;高さ15cm;幅1cm;ショルダーストラップドロップ18cm","Saffiano Leather","サフィアーノレザー",
ウィメンズ:革小物,【新品】　Prada Saffiano Metal Cellphone Sleeve プラダサファイアメタル携帯電話スリーブ,1ZH029QWAF05050001G,88000,71000,送料無料　プラダ 革小物 ロングウォレット,"外観<br> - サフィアーノレザーボディー<br> - ゴールドトーンハードウェア<br> - 調節可能で着脱可能なリストストラップ、取り外し可能なチェーンショルダーストラップ<br> - ダブルマグネットスナップタブクロージャ<br> - デザイナーのレタリングを募集<br><br>インテリア<br> - レザーとファブリックの裏地<br> -  1つのiPhoneコンパートメント、1つのファスナーポケット、2つのカードスロット、3つのスリップコンパートメント<br> -  Debossedデザイナーレタリング<br><br>追加情報<br> -  iPhone 7はiPhone 7 Plusに適合<br>",,1,,1,"Exterior<br>- Saffiano leather body<br>- Gold tone hardware<br>- Adjustable and detachable wristlet strap, detachable chain shoulder strap<br>- Double magnetic snap tab closure<br>- Raised designer lettering<br><br>Interior<br>- Leather and fabric lining<br>- 1 iPhone compartment, 1 zipper pocket, 2 card slots, 3 slip compartments<br>- Debossed designer lettering<br><br>Additional Information<br>- iPhone compartment fits up to iPhone 7 Plus",Peonia (Designer Colour)Peonia ,ペオニア,"","","Length 18.5cm; Height 10cm; Width 4cm; Wristlet Strap Drop at max 18cm; Shoulder Strap Drop 55cm","長さ18.5cm;高さ10cm;幅4cm;最大18cmでのストラップドロップショルダーストラップドロップ55cm","Saffiano Leather","サフィアーノレザー",
ウィメンズ:革小物,【新品】　Prada Saffiano 1 Pochette プラダサフィアノ1ポシェット,1NH004PN9F068Z0001G,82000,66000,送料無料　プラダ 革小物 WRISTLET,"外観<br> - サフィアーノレザーボディー<br> - ゴールドトーンハードウェア<br> - シングルショルダーストラップ<br> - ジップトップクロージャー<br> - デザイナーのレタリングを募集<br><br>インテリア<br> - 生地の裏地<br> - スリップポケット1つ、カードスロット4つ<br> - デザイナーのプラーク<br>",,1,,1,"Exterior<br>- Saffiano leather body<br>- Gold tone hardware<br>- Single shoulder strap<br>- Zip top closure<br>- Raised designer lettering<br><br>Interior<br>- Fabric lining<br>- 1 slip pocket, 4 card slots<br>- Designer plaque",Fuoco (Designer Colour)Fuoco ,フーコ,"","","Length 23cm; Height 15cm; Width 1cm; Shoulder Strap Drop 17cm","奥行き23cm;高さ15cm;幅1cm;ショルダーストラップドロップ17cm","Saffiano Leather","サフィアーノレザー",
ウィメンズ:革小物,【新品】　Prada Saffiano Metal Short Flap Wallet  プラダサファイアメタルショートフラップウォレット,1MH840QWAF04420001G,65000,52000,送料無料　プラダ 革小物 ショート札入れ,"外観<br> - サフィアーノレザーボディー<br> - ゴールドトーンハードウェア<br> - スナップタブのクロージャ<br> - デザイナーのレタリングを募集<br><br>インテリア<br> - レザーとファブリックの裏地<br> -  1札スリーブ、3カードスロット、1コインコンパートメント、2スリップポケット<br>",,1,,1,"Exterior<br>- Saffiano leather body<br>- Gold tone hardware<br>- Snap tab closure <br>- Raised designer lettering <br><br>Interior<br>- Leather and fabric lining<br>- 1 bill sleeve, 3 card slots, 1 coin compartment, 2 slip pockets ",Petalo (Designer Colour)Petalo ,ペタロ,"","","Length 12cm; Height 9cm; Width 2cm","長さ12cm;高さ9cm;幅2cm","Saffiano Leather","サフィアーノレザー",
ウィメンズ:革小物,【新品】　Prada Saffiano Shine Long Flap Wallet プラダサフィアーノシャインロングフラップウォレット,1MH1322EBWF000200012ZCH,96000,77000,送料無料　プラダ 革小物 ロングウォレット,"外観<br> - サフィアーノレザーボディー<br> - オニキスとゴールドトーンのハードウェア<br> - ダブルスナップタブのクロージャ<br> - ファスナーコンパートメント1個<br> - デザイナーのレタリングを募集<br><br>インテリア<br> - レザーとファブリックの裏地<br> -  2札スリーブ、10カードスロット、1ジッパーコンパートメント、4スリップポケット<br> -  Debossedデザイナーレタリング<br><br>追加情報<br> - 取り外し可能なカードホルダーが2つのカードスロットと1つのクリアIDウィンドウ付き<br>",,1,,1,"Exterior<br>- Saffiano leather body<br>- Onyx tone and gold tone hardware<br>- Double snap tab closure<br>- 1 zipper compartment<br>- Raised designer lettering<br><br>Interior<br>- Leather and fabric lining<br>- 2 bill sleeves, 10 card slots, 1 zipper compartment, 4 slip pockets<br>- Debossed designer lettering<br><br>Additional Information<br>- Comes with detachable card holder with 2 card slots and 1 clear ID window",Nero (Designer Colour)Nero ,Nero,"","","Length 19cm; Height 9.5cm; Width 3cm","長さ19cm;高さ9.5cm;幅3cm","Saffiano Leather","サフィアーノレザー",
ウィメンズ:バッグ,【新品】　Pre-Owned Yves Saint Laurent Muse 2 中古イブ・サン・ローラン・ミューズ2,SC2020840B,53000,53000,送料無料　サンローラン バッグ ショルダー,"外観<br> - クロコ型押しのカーフスキンレザーボディ<br> - 古い金色のハードウェア<br> - シングルトップハンドル、取り外し可能なショルダーストラップ<br> - スロットスルークロージャ<br> -  1スリップコンパートメント<br> -  4つの保護金属製の足<br><br>インテリア<br> -  Unlined<br> - ファスナーコンパートメント1個<br> -  Debossedデザイナーラベル<br><br>調子<br> - 外装と内装の看板<br> - ハードウェアの傷<br> - 袋の側面に見える汚れ<br><br>追加情報<br>- イタリア製<br> - オリジナルのダストバッグが付属しています<br>",,1,,1,"Exterior<br>- Croc embossed calfskin leather body<br>- Aged gold tone hardware<br>- Single top handle, detachable shoulder strap<br>- Slot through closure<br>- 1 slip compartment<br>- 4 protective metal feet<br><br>Interior<br>- Unlined<br>- 1 zipper compartment<br>- Debossed designer label<br><br>Condition<br>- Signs of wear on exterior and interior<br>- Scratches on hardware<br>- Visible stains at sides of bag<br><br>Additional information<br>- Made In Italy<br>- Comes with original dust bag",Dark GreenDark Green,褐色 x 濃い緑色,"","","Length (at base) 33cm; Height 22cm; Width 16.5cm; Handle Drop 18cm; Detachable Shoulder Strap Drop 55cm ","長さ（ベースで）33cm;高さ22cm;幅16.5cm;ハンドルドロップ18cm;取り外し可能なショルダーストラップドロップ55cm","Croc Embossed Calfskin Leather","クロコ型押しカーフスキンレザー",
ウィメンズ:革小物,【新品】　Pre-Owned Gucci Guccissima Zip Around Wallet 中古グッチグッチッシマジップアラウンドウォレット,SC2020876A,22000,22000,送料無料　グッチ 革小物 ショート札入れ,"外観<br> -  Guccissimaレザーボディー<br> - ガンメタル調のハードウェア<br> - ジップアラウンドクロージャー<br><br>インテリア<br> - レザーとファブリックの裏地<br> -  1札スリーブ、5カードスロット、2スリップポケット、1コインコンパートメント<br> -  Debossedデザイナーレタリング<br><br>調子<br> - 外装と内装の看板<br> - ハードウェアのヘアラインスクラッチ<br> - 皮革本体にわずかなしわ<br> - インテリアのレザーライニングの傷やくぼみ<br> - カードスロットの端でマイルド<br><br>追加情報<br>- イタリア製<br>オリジナルボックスと商品タグ付き<br>",,1,,1,"Exterior<br>- Guccissima leather body<br>- Gunmetal tone hardware<br>- Zip around closure<br><br>Interior<br>- Leather and fabric lining<br>- 1 bill sleeve, 5 card slots, 2 slip pockets, 1 coin compartment<br>- Debossed designer lettering<br><br>Condition<br>- Signs of wear on exterior and interior<br>- Hairline scratches on hardware<br>- Slight creasing on leather body<br>- Scratches and indentations on interior's leather lining<br>- Mild yielding at edges of card slots<br><br>Additional Information<br>- Made In Italy<br>- Comes with original box and article tag",ChocolateChocolate,チョコレート,"","","Length 11cm; Height 10cm; Width 2cm","長さ11cm;高さ10cm;幅2cm","Guccissima Leather","グッチシマレザー",
ウィメンズ:バッグ,【新品】　Pre-Owned Saint Laurent Classic Monogramme Chain Wallet 中古サンローランクラシックモノグラムチェーン財布,SC2020900B,132000,132000,送料無料　サンローラン バッグ スリング,"外観<br> - カーフスキンレザーボディー<br> - シルバートーンのハードウェア<br> - チェーンショルダーストラップ<br> - スナップタブのクロージャ<br> - ハートスタッドディテール<br> - デザイナーのロゴを上げる<br><br>インテリア<br> - レザーとファブリックの裏地<br> - ファスナーポケット×1、カードスロット×20、スリップコンパートメント×2<br> -  Debossedデザイナーレタリング<br><br>調子<br> - 外装と内装の摩耗が最小限に抑えられる<br> - 革の身体とフラップの下面に傷があります<br><br>追加情報<br>- イタリア製<br> - オリジナルのダストバッグが付属しています<br>",,1,,1,"Exterior<br>- Calfskin leather body<br>- Silver tone hardware<br>- Chain shoulder strap<br>- Snap tab closure<br>- Hearts stud detail<br>- Raised designer logo<br><br>Interior<br>- Leather and fabric lining<br>- 1 zipper pocket, 20 card slots, 2 slip compartments<br>- Debossed designer lettering<br><br>Condition<br>- Minimal signs of wear on exterior and interior<br>- Faint scratches on leather body and underside of flap<br><br>Additional Information<br>- Made In Italy<br>- Comes with original dust bag",Nero (Designer Colour)Nero ,Nero,"","","Length 22.5cm; Height 14cm; Width 4cm; Shoulder Strap Drop 48cn","長さ22.5cm;高さ14cm;幅4cm;ショルダーストラップドロップ48cn","Calfskin Leather","カーフスキンレザー",
ウィメンズ:バッグ,【新品】　Pre-Owned Louis Vuitton Monogram Palermo PM 中古ルイヴィトンモノグラムパレルモPM,SC2020898B,124000,124000,送料無料　ルイヴィトン バッグ ショルダー,"外観<br> - 牛革レザートリムのモノグラムキャンバスボディ<br> - 真鍮のハードウェア<br> - ダブルトップハンドル、調節可能で取り外し可能なショルダーストラップ<br> - ジップトップクロージャー<br> -  Debossedデザイナーレタリング<br><br>インテリア<br> - 生地の裏地<br> - スリップポケット3つ<br> -  Debossedデザイナーラベル<br><br>調子<br> - 外装と内装の摩耗が最小限に抑えられる<br> - ハードウェアのヘアラインスクラッチ<br> - レザーは、汚れが付いた明るい緑青を発達させました<br> - マイルドなコーナー<br><br>追加情報<br> -  Made in France<br> - オリジナルのダストバッグが付属しています<br>",,1,,1,"Exterior<br>- Monogram canvas body with cowhide leather trim <br>- Brass hardware<br>- Double top handles, adjustable and detachable shoulder strap <br>- Zip top closure <br>- Debossed designer lettering <br><br>Interior<br>- Fabric lining<br>- 3 slip pockets<br>- Debossed designer label <br><br>Condition<br>- Minimal signs of wear on exterior and interior<br>- Hairline scratches on hardware<br>- Leather has developed a light patina, with stains<br>- Mild scuffed corners<br><br>Additional information<br>- Made In France<br>- Comes with original dust bag",BrownBrown,褐色,"","","Length (at base) 29cm; Height 25cm; Width 16cm; Handle Drop 14cm; Shoulder Strap Drop at max 40cm","長さ（ベースで）29cm;高さ25cm;幅16cm;ハンドルドロップ14cm;最大40cmのショルダーストラップドロップ","Cowhide Leather,Monogram Canvas","牛革,モノグラムキャンバス",
ウィメンズ:革小物,【新品】　Pre-Owned Prada Saffiano Shine Long Zip Around Wallet 中古プラダサフィアーノシャネルロングジップアラウンドウォレット,SB1ML5062EBWF001300013001,53000,53000,送料無料　プラダ 革小物 ロングウォレット,"外観<br> - サフィアーノレザーボディー<br> - ゴールドトーンとブルートーンのハードウェア<br> - ジップアラウンドクロージャー<br> - デザイナーのレタリングを募集<br><br>インテリア<br> - レザーとファブリックの裏地<br> -  3つの紙幣袖、12枚のカードスロット、1つのファスナーコンパートメント、3つのスリップポケット<br> -  Debossedデザイナーレタリング<br><br>調子<br> - 目に見える痕跡がない未使用<br><br>追加情報<br>- イタリア製<br>オリジナルボックス、記事タグ、真正カードが付属<br>",,1,,1,"Exterior<br>- Saffiano leather body<br>- Gold tone and blue tone hardware<br>- Zip around closure<br>- Raised designer lettering<br><br>Interior<br>- Leather and fabric lining<br>- 3 bill sleeves, 12 card slots, 1 zipper compartment, 3 slip pockets<br>- Debossed designer lettering <br><br>Condition<br>- Unused with no visible signs of wear<br><br>Additional Information<br>- Made In Italy<br>- Comes with original box, article tag and authenticity card",Azzurro (Designer Colour)Azzurro ,Azzurro,"","","Length 20cm; Height 10cm; Width 2cm","長さ20cm;高さ10cm;幅2cm","Saffiano Leather","サフィアーノレザー",
:アクセサリー,【新品】　Burberry Giant Check Cashmere Scarf  バーバリージャイアントチェックカシミヤスカーフ,3954673,67000,54000,送料無料　バーバリー アクセサリー スカリー,"詳細<br> -  100％カシミア<br> - フリンジ裾<br> - デザイナーのラベル<br>",,1,,1,"Details<br>- 100% cashmere <br>- Fringed hem <br>- Designer label ",Stone Check (Designer Colour)Stone Check ,ストーンチェック,"","","Dimensions 168cm x 30cm ","サイズ168cm x 30cm","100% Cashmere","100％カシミア",
ウィメンズ:バッグ,【新品】　Burberry Soft Leather Ble Large Remington Tote バーバリーソフトレザーブレスレミントントート,4060096,171000,137000,送料無料　バーバリー バッグ TOTE,"外観<br> - カーフスキンレザーボディー<br> - ゴールドトーンハードウェア<br> - ダブルショルダーストラップ<br> - オープントップ<br> -  Debossedデザイナーレタリング<br><br>インテリア<br> -  Unlined<br>・ファスナーポケット1つ<br>",,1,,1,"Exterior<br>- Calfskin leather body<br>- Gold tone hardware<br>- Double shoulder straps<br>- Open top<br>- Debossed designer lettering <br><br>Interior<br>- Unlined<br>- 1 zipper pocket",Black (Designer Colour)Black ,ブラック,"","","Length (at base) 38cm; Height 31cm; Width 13cm; Shoulder Strap Drop at max 28cm","長さ（ベースで）38cm;高さ31cm;幅13cm;ショルダーストラップドロップ（最大28cm）","Calfskin Leather","カーフスキンレザー",
ウィメンズ:革小物,【新品】　Burberry Haymarket Harris Wallet バーバリーヘイマーケットハリスウォレット,4060697,63000,50000,送料無料　バーバリー 革小物 ロングウォレット,"外観<br> -  Haymarketでコーティングされたキャンバス本体、レザートリム<br> - ゴールドトーンハードウェア<br> - スナップタブのクロージャ<br> - デザイナーのレタリングを募集<br><br>インテリア<br> - レザーとファブリックの裏地<br> -  1札スリーブ、8枚のカードスロット、1枚のスリップポケット<br> -  Debossedデザイナーレタリング<br>",,1,,1,"Exterior<br>- Haymarket coated canvas body with leather trim <br>- Gold tone hardware<br>- Snap tab closure<br>- Raised designer lettering <br><br>Interior<br>- Leather and fabric lining<br>- 1 bill sleeve, 8 card slots, 1 slip pocket<br>- Debossed designer lettering ",Black (Designer Colour)Black ,ブラック,"","","Length 19cm; Height 10cm; Width 2cm","長さ19cm;高さ10cm;幅2cm","Leather,Coated Canvas","レザー,コーティングキャンバス",
ウィメンズ:革小物,【新品】　Burberry Haymarket Zip Around Wallet Burberry Haymarketジップアラウンドウォレット,4060730,65000,52000,送料無料　バーバリー 革小物 ロングウォレット,"外観<br> - ヘイマーケットコーティングされたキャンバスボディ<br> - ゴールドトーンハードウェア<br> - ジップアラウンドクロージャー<br> - デザイナーのレタリングを募集<br><br>インテリア<br> - レザーとファブリックの裏地<br> -  2枚の紙幣スリーブ、12枚のカードスロット、2枚のスリップコンパートメント、1枚のジッパーコンパートメント<br> -  Debossedデザイナーレタリング<br>",,1,,1,"Exterior<br>- Haymarket coated canvas body <br>- Gold tone hardware<br>- Zip around closure<br>- Raised designer lettering <br><br>Interior<br>- Leather and fabric lining<br>- 2 bill sleeves, 12 card slots, 2 slip compartments, 1 zipper compartment<br>- Debossed designer lettering ",Mid Camel (Designer Colour)Mid Camel ,ミッドキャメル,"","","Length 18.5cm; Height 11cm; Width 2cm","長さ18.5cm;高さ11cm;幅2cm","Coated Canvas","コーティングキャンバス",
ウィメンズ:バッグ,【新品】　Burberry Soft Leather Ble Large Remington Tote バーバリーソフトレザーブレスレミントントート,4060098,171000,137000,送料無料　バーバリー バッグ TOTE,"外観<br> - カーフスキンレザーボディー<br> - ゴールドトーンハードウェア<br> - ダブルショルダーストラップ<br> - オープントップ<br> -  Debossedデザイナーレタリング<br><br>インテリア<br> -  Unlined<br>・ファスナーポケット1つ<br>",,1,,1,"Exterior<br>- Calfskin leather body<br>- Gold tone hardware<br>- Double shoulder straps<br>- Open top<br>- Debossed designer lettering <br><br>Interior<br>- Unlined<br>- 1 zipper pocket",Ash Rose (Designer Colour)Ash Rose ,アッシュローズ,"","","Length (at base) 38cm; Height 31cm; Width 13cm; Shoulder Strap Drop at max 28cm","長さ（ベースで）38cm;高さ31cm;幅13cm;ショルダーストラップドロップ（最大28cm）","Calfskin Leather","カーフスキンレザー",
ウィメンズ:革小物,【新品】　Burberry Haymarket Harris Wallet バーバリーヘイマーケットハリスウォレット,4060085,63000,50000,送料無料　バーバリー 革小物 ロングウォレット,"外観<br> -  Haymarketでコーティングされたキャンバス本体、レザートリム<br> - ゴールドトーンハードウェア<br> - スナップタブのクロージャ<br> - デザイナーのレタリングを募集<br><br>インテリア<br> - レザーとファブリックの裏地<br> -  1札スリーブ、8枚のカードスロット、1枚のスリップポケット<br> -  Debossedデザイナーレタリング<br>",,1,,1,"Exterior<br>- Haymarket coated canvas body with leather trim <br>- Gold tone hardware<br>- Snap tab closure<br>- Raised designer lettering <br><br>Interior<br>- Leather and fabric lining<br>- 1 bill sleeve, 8 card slots, 1 slip pocket<br>- Debossed designer lettering ",Mid Camel (Designer Colour)Mid Camel ,ミッドキャメル,"","","Length 19cm; Height 10cm; Width 2cm","長さ19cm;高さ10cm;幅2cm","Coated Canvas","コーティングキャンバス",
メンズ:革小物,【新品】　Saint Laurent Classic Paris Card Holder サンローランクラシックカードホルダー,375946BTY0N1000,26000,21000,送料無料　サンローラン 革小物 カードホルダー,"詳細<br> -  Grain de Poudreカーフスキンレザーボディー<br> -  5枚のカードスロット<br> -  Debossedデザイナーレタリング<br>",,1,,1,"Details<br>- Grain de Poudre calfskin leather body<br>- 5 card slots<br>- Debossed designer lettering",Nero (Designer Colour)Nero ,Nero,"","","Length 10cm; Height 8cm; Width 0.3cm","長さ10cm;高さ8cm;幅0.3cm","Calfskin Leather","カーフスキンレザー",
メンズ:革小物,【新品】　Saint Laurent Classic Paris East/West Bifold Wallet サンローランクラシックパリイースト/ウエストビフォールドウォレット,396307BTY0N4147,44000,35000,送料無料　サンローラン 革小物 BI-FOLD WALLET,"外観<br> - カーフスキンレザーボディー<br> - 二重<br> -  Debossedデザイナーレタリング<br><br>インテリア<br> - レザーとファブリックの裏地<br> -  2枚の紙幣スリーブ、8枚のカードスロット、2枚のスリップポケット<br> -  Debossedデザイナーレタリング<br>",,1,,1,"Exterior<br>- Calfskin leather body<br>- Bifold<br>- Debossed designer lettering<br><br>Interior<br>- Leather and fabric lining<br>- 2 bill sleeves, 8 card slots, 2 slip pockets<br>- Debossed designer lettering",Marine (Designer Colour)Marine ,マリン,"","","Length 11cm; Height 9.5cm; Width 2cm","長さ11cm;高さ9.5cm;幅2cm","Calfskin Leather","カーフスキンレザー",
メンズ:バッグ,【新品】　Saint Laurent City Backpack サンローランシティバックパック,465448GR0RF1077,146000,117000,送料無料　サンローラン バッグ バックパック,"外観<br> -  PUレザートリムのキャンバスボディ<br> - 高級シルバートーンのハードウェア<br> - シングルトップハンドル、ダブル調節可能なバックストラップ<br> - ジップアラウンドクロージャー<br>・ファスナーポケット1つ<br> -  "Saint Laurent"とスタッド付きの稲妻のプリント<br> - 取り外し可能なデザイナーハングタグ<br> -  Debossedデザイナーレタリング<br><br>インテリア<br> - 生地の裏地<br> - ファスナーポケット1つ、スリップポケット1つ、スリップコンパートメント1つ<br> -  Debossedデザイナーレタリング<br>",,1,,1,"Exterior<br>- Canvas body with PU leather trim<br>- Aged silver tone hardware<br>- Single top handle, double adjustable back straps<br>- Zip around closure<br>- 1 zipper pocket<br>- <br>Saint Laurent<br> and lightning bolt print with studs<br>- Detachable designer hang tag<br>- Debossed designer lettering<br><br>interior<br>- Fabric lining <br>- 1 zipper pocket, 1 slip pocket, 1 slip compartment<br>- Debossed designer lettering",Nero (Designer Colour)Nero ,Nero,"","","Length 30cm; Height 44cm; Width 16cm; Top Handle Drop 6cm; Back Strap Drop at max 41cm","長さ30cm;高さ44cm;幅16cm;トップハンドルドロップ6cm;バックストラップドロップ（最大41cm）","Canvas,PU Leather","キャンバス,PUレザー",
メンズ:バッグ,【新品】　Saint Laurent City Backpack サンローランシティバックパック,4654489N41F8477,146000,117000,送料無料　サンローラン バッグ バックパック,"外観<br> - イカットキャンバスボディ、レザートリム<br> - シルバートーンのハードウェア<br> - シングルトップハンドル、ダブル調節可能なバックストラップ<br> - ジップアラウンドクロージャー<br>・ファスナーポケット1つ<br> - 取り外し可能なデザイナーハングタグ<br> -  Debossedデザイナーレタリング<br><br>インテリア<br> - 生地の裏地<br> - ファスナーポケット1つ、スリップポケット1つ、スリップコンパートメント1つ<br> -  Debossedデザイナーレタリング<br>",,1,,1,"Exterior<br>- Ikat canvas body with leather trim<br>- Silver tone hardware<br>- Single top handle, double adjustable back straps<br>- Zip around closure<br>- 1 zipper pocket<br>- Detachable designer hang tag<br>- Debossed designer lettering<br><br>interior<br>- Fabric lining <br>- 1 zipper pocket, 1 slip pocket, 1 slip compartment<br>- Debossed designer lettering",Multicoloured (Designer Colour)Multicoloured ,多色,"","","Length 30cm; Height 44cm; Width 16cm; Top Handle Drop 6cm; Back Strap Drop at max 41cm","長さ30cm;高さ44cm;幅16cm;トップハンドルドロップ6cm;バックストラップドロップ（最大41cm）","Ikat Canvas","イカットキャンバス",
メンズ:革小物,【新品】　Saint Laurent Fragments Eclair Studded Card Case Saint Laurent Fragments Eclairスタッズドカードケース,458593BXRE61077,42000,34000,送料無料　サンローラン 革小物 カードホルダー,"外観<br> - カーフスキンレザーボディー<br> - シルバートーンのハードウェア<br> - ジップトップクロージャー<br> -  5枚のカードスロット<br> - 印刷された稲妻とデザイナーのレタリング<br> - スタッドの詳細<br><br>インテリア<br> - レザーライニング<br> -  Debossedデザイナーレタリング<br>",,1,,1,"Exterior<br>- Calfskin leather body<br>- Silver tone hardware<br>- Zip top closure<br>- 5 card slots<br>- Printed lightning bolt and designer lettering<br>- Stud detail<br><br>Interior<br>- Leather lining<br>- Debossed designer lettering",Nero (Designer Colour)Nero ,Nero,"","","Length 13cm; Height 7cm; Width 1cm","長さ13cm;高さ7cm;幅1cm","Calfskin Leather","カーフスキンレザー",
ウィメンズ:バッグ,【新品】　A.P.C. Gabrielle Bag	 A.P.C.ガブリエルバッグ,PXAWVF61173CAA,72000,65000,送料無料　A.P.C. バッグ ショルダー,"外観<br> - 滑らかな植物タンニングカーフスキンレザーボディ<br> - ゴールドトーンハードウェア<br> - 着脱可能なファブリックショルダーストラップ<br> - ジップトップクロージャー<br> -  1スリップコンパートメント<br> - デザートレタリング<br><br>インテリア<br> - 生地の裏地<br> - スリップポケット1つ<br> -  Debossedデザイナーラベル<br>",,1,,1,"Exterior<br>- Smooth vegetable tanned calfskin leather body<br>- Gold tone hardware<br>- Detachable fabric shoulder strap <br>- Zip top closure<br>- 1 slip compartment<br>- Debssed designer lettering<br><br>Interior<br>- Fabric lining<br>- 1 slip pocket<br>- Debossed designer label",Marron (Designer Colour)Marron ,マロン,"","","Length (at base) 23.5cm; Height 20cm; Width 8cm; Shoulder Strap Drop at max 48cm","長さ（ベースで）23.5cm;高さ20cm;幅8cm;ショルダーストラップドロップ（最大48cm）","Vegetable Tanned Calfskin Leather","野菜タンニングカーフスキンレザー",
ウィメンズ:革小物,【新品】　A.P.C. Emmanuelle Compact Wallet A.P.C.エマニュエルコンパクトウォレット,PXAWVH63087JAC,34000,31000,送料無料　A.P.C. 革小物 ショート札入れ,"外観<br> - 野菜タンニングカーフスキンレザーボディー<br> - シルバートーンのハードウェア<br> - スナップタブのクロージャ<br> - ファスナーコンパートメント1個<br> -  Debossedデザイナーレタリング<br><br>インテリア<br> - レザーとファブリックの裏地<br> -  1札スリーブ、3枚のカードスロット、4枚のスリップポケット<br>",,1,,1,"Exterior<br>- Vegetable tanned calfskin leather body<br>- Silver tone hardware<br>- Snap tab closure<br>- 1 zipper compartment<br>- Debossed designer lettering<br><br>Interior<br>- Leather and fabric lining<br>- 1 bill sleeve, 3 card slots, 4 slip pockets",Kaki (Designer Colour)Kaki ,カキ,"","","Length 12cm; Height 9cm; Width 3cm","長さ12cm;高さ9cm;幅3cm","Calfskin Leather","カーフスキンレザー",
ウィメンズ:バッグ,【新品】　A.P.C. M?lanie Bag A.P.C.メラニーバッグ,PXBGAF61226EAF,69000,62000,送料無料　A.P.C. バッグ ショルダー,"外観<br> - 牛革本体<br> - ゴールドトーンハードウェア<br> - シングルショルダーストラップ<br> - ジップトップクロージャー<br> -  Debossedデザイナーレタリング<br><br>インテリア<br> - 生地の裏地<br> - スリップポケット1つ<br> -  Debossedデザイナーラベル<br>",,1,,1,"Exterior<br>- Cowhide leather body <br>- Gold tone hardware<br>- Single shoulder strap<br>- Zip top closure<br>- Debossed designer lettering<br><br>Interior<br>- Fabric lining<br>- 1 slip pocket<br>- Debossed designer label",Brique (Designer Colour)Brique ,ブリーク,"","","Length (at base) 26cm; Height 17cm; Width 7cm; Shoulder Strap Drop 52cm","長さ（ベースで）26cm;高さ17cm;幅7cm;ショルダーストラップドロップ52cm","Cowhide Leather","牛革",
ウィメンズ:バッグ,【新品】　Loewe Puzzle Bag ロエベパズルバッグ,32230S207130,333000,267000,送料無料　LOEWE バッグ トップハンドル,"外観<br> - カーフスキンレザーボディー<br> - パラジウムメッキハードウェア<br> - シングルトップハンドル、調節可能で着脱可能なショルダーストラップ<br> - ジップトップクロージャー<br>・ファスナーポケット1つ<br> -  4つの保護金属製の足<br> - デザイナーアナグラム<br><br>インテリア<br> - 生地の裏地<br> - スリップポケット2つ<br> -  Debossedデザイナーラベル<br>",,1,,1,"Exterior<br>- Calfskin leather body<br>- Palladium plated hardware<br>- Single top handle, adjustable and detachable shoulder strap<br>- Zip top closure<br>- 1 zipper pocket<br>- 4 protective metal feet<br>- Debossed designer anagram<br><br>Interior<br>- Fabric lining<br>- 2 slip pockets <br>- Debossed designer label",Coral (Designer Colour)Coral ,コーラル,"","","Length (at base) 28cm; Height 18cm; Width 12cm; Handle Drop 5cm; Shoulder Strap Drop at max 55cm","長さ（ベースで）28cm;高さ18cm;幅12cm;ハンドルドロップ5cm;最大55cmのショルダーストラップドロップ","Calfskin Leather","カーフスキンレザー",
ウィメンズ:バッグ,【新品】　Loewe Puzzle Large Bag ロエベパズルラージバッグ,32230S191100,352000,282000,送料無料　LOEWE バッグ トップハンドル,"外観<br> - カーフスキンレザーボディー<br> - パラジウムメッキハードウェア<br> - シングルトップハンドル、調節可能で着脱可能なショルダーストラップ<br> - ジップトップクロージャー<br>・ファスナーポケット1つ<br> -  4つの保護金属製の足<br> - デザイナーアナグラム<br><br>インテリア<br> - 生地の裏地<br> - スリップポケット2つ<br> -  Debossedデザイナーラベル<br>",,1,,1,"Exterior<br>- Calfskin leather body<br>- Palladium plated hardware<br>- Single top handle, adjustable and detachable shoulder strap<br>- Zip top closure<br>- 1 zipper pocket<br>- 4 protective metal feet<br>- Debossed designer anagram<br><br>Interior<br>- Fabric lining<br>- 2 slip pockets <br>- Debossed designer label",Black (Designer Colour)Black ,ブラック,"","","Length (at base) 35cm; Height 23cm; Width 19.5cm; Handle Drop 9cm; Shoulder Strap Drop at max 58cm","長さ（ベースで）35cm;高さ23cm;幅19.5cm;ハンドルドロップ9cm;ショルダーストラップドロップ（最大58cm）","Calfskin Leather","カーフスキンレザー",
